%YAML 1.1
%TAG !u! tag:unity3d.com,2011:
--- !u!1 &1997113204864635639
GameObject:
  m_ObjectHideFlags: 0
  m_CorrespondingSourceObject: {fileID: 0}
  m_PrefabInstance: {fileID: 0}
  m_PrefabAsset: {fileID: 0}
  serializedVersion: 6
  m_Component:
  - component: {fileID: 4949020760926667}
  - component: {fileID: 5769728072667675717}
  m_Layer: 5
  m_Name: EquippedInventoryCanvasGroup
  m_TagString: Untagged
  m_Icon: {fileID: 0}
  m_NavMeshLayer: 0
  m_StaticEditorFlags: 0
  m_IsActive: 1
--- !u!224 &4949020760926667
RectTransform:
  m_ObjectHideFlags: 0
  m_CorrespondingSourceObject: {fileID: 0}
  m_PrefabInstance: {fileID: 0}
  m_PrefabAsset: {fileID: 0}
  m_GameObject: {fileID: 1997113204864635639}
  m_LocalRotation: {x: 0, y: 0, z: 0, w: 1}
  m_LocalPosition: {x: 0, y: 0, z: 0}
  m_LocalScale: {x: 1, y: 1, z: 1}
  m_Children:
  - {fileID: 6195845408201760440}
  m_Father: {fileID: 0}
  m_RootOrder: 0
  m_LocalEulerAnglesHint: {x: 0, y: 0, z: 0}
  m_AnchorMin: {x: 0.5, y: 0.5}
  m_AnchorMax: {x: 0.5, y: 0.5}
  m_AnchoredPosition: {x: 0, y: 0}
  m_SizeDelta: {x: 100, y: 100}
  m_Pivot: {x: 0.5, y: 0.5}
--- !u!225 &5769728072667675717
CanvasGroup:
  m_ObjectHideFlags: 0
  m_CorrespondingSourceObject: {fileID: 0}
  m_PrefabInstance: {fileID: 0}
  m_PrefabAsset: {fileID: 0}
  m_GameObject: {fileID: 1997113204864635639}
  m_Enabled: 1
  m_Alpha: 1
  m_Interactable: 1
  m_BlocksRaycasts: 1
  m_IgnoreParentGroups: 0
--- !u!1001 &5092421936327360480
PrefabInstance:
  m_ObjectHideFlags: 0
  serializedVersion: 2
  m_Modification:
    m_TransformParent: {fileID: 4949020760926667}
    m_Modifications:
    - target: {fileID: 1393857863111876952, guid: 05d939c5a7c06ab4883bb441cac37cb1,
        type: 3}
      propertyPath: m_LocalPosition.x
      value: 0
      objectReference: {fileID: 0}
    - target: {fileID: 1393857863111876952, guid: 05d939c5a7c06ab4883bb441cac37cb1,
        type: 3}
      propertyPath: m_LocalPosition.y
      value: 0
      objectReference: {fileID: 0}
    - target: {fileID: 1393857863111876952, guid: 05d939c5a7c06ab4883bb441cac37cb1,
        type: 3}
      propertyPath: m_LocalPosition.z
      value: 0
      objectReference: {fileID: 0}
    - target: {fileID: 1393857863111876952, guid: 05d939c5a7c06ab4883bb441cac37cb1,
        type: 3}
      propertyPath: m_LocalRotation.x
      value: -0
      objectReference: {fileID: 0}
    - target: {fileID: 1393857863111876952, guid: 05d939c5a7c06ab4883bb441cac37cb1,
        type: 3}
      propertyPath: m_LocalRotation.y
      value: -0
      objectReference: {fileID: 0}
    - target: {fileID: 1393857863111876952, guid: 05d939c5a7c06ab4883bb441cac37cb1,
        type: 3}
      propertyPath: m_LocalRotation.z
      value: -0
      objectReference: {fileID: 0}
    - target: {fileID: 1393857863111876952, guid: 05d939c5a7c06ab4883bb441cac37cb1,
        type: 3}
      propertyPath: m_LocalRotation.w
      value: 1
      objectReference: {fileID: 0}
    - target: {fileID: 1393857863111876952, guid: 05d939c5a7c06ab4883bb441cac37cb1,
        type: 3}
      propertyPath: m_RootOrder
      value: 0
      objectReference: {fileID: 0}
    - target: {fileID: 1393857863111876952, guid: 05d939c5a7c06ab4883bb441cac37cb1,
        type: 3}
      propertyPath: m_LocalEulerAnglesHint.x
      value: 0
      objectReference: {fileID: 0}
    - target: {fileID: 1393857863111876952, guid: 05d939c5a7c06ab4883bb441cac37cb1,
        type: 3}
      propertyPath: m_LocalEulerAnglesHint.y
      value: 0
      objectReference: {fileID: 0}
    - target: {fileID: 1393857863111876952, guid: 05d939c5a7c06ab4883bb441cac37cb1,
        type: 3}
      propertyPath: m_LocalEulerAnglesHint.z
      value: 0
      objectReference: {fileID: 0}
    - target: {fileID: 1393857863111876952, guid: 05d939c5a7c06ab4883bb441cac37cb1,
        type: 3}
      propertyPath: m_AnchoredPosition.x
      value: 48.80005
      objectReference: {fileID: 0}
    - target: {fileID: 1393857863111876952, guid: 05d939c5a7c06ab4883bb441cac37cb1,
        type: 3}
      propertyPath: m_AnchoredPosition.y
      value: 110
      objectReference: {fileID: 0}
    - target: {fileID: 1393857863111876952, guid: 05d939c5a7c06ab4883bb441cac37cb1,
        type: 3}
      propertyPath: m_SizeDelta.x
      value: 400
      objectReference: {fileID: 0}
    - target: {fileID: 1393857863111876952, guid: 05d939c5a7c06ab4883bb441cac37cb1,
        type: 3}
      propertyPath: m_SizeDelta.y
      value: 400
      objectReference: {fileID: 0}
    - target: {fileID: 1393857863111876952, guid: 05d939c5a7c06ab4883bb441cac37cb1,
        type: 3}
      propertyPath: m_AnchorMin.x
      value: 0
      objectReference: {fileID: 0}
    - target: {fileID: 1393857863111876952, guid: 05d939c5a7c06ab4883bb441cac37cb1,
        type: 3}
      propertyPath: m_AnchorMin.y
      value: 0
      objectReference: {fileID: 0}
    - target: {fileID: 1393857863111876952, guid: 05d939c5a7c06ab4883bb441cac37cb1,
        type: 3}
      propertyPath: m_AnchorMax.x
      value: 0
      objectReference: {fileID: 0}
    - target: {fileID: 1393857863111876952, guid: 05d939c5a7c06ab4883bb441cac37cb1,
        type: 3}
      propertyPath: m_AnchorMax.y
      value: 0
      objectReference: {fileID: 0}
    - target: {fileID: 1393857863111876952, guid: 05d939c5a7c06ab4883bb441cac37cb1,
        type: 3}
      propertyPath: m_Pivot.x
      value: 0.5
      objectReference: {fileID: 0}
    - target: {fileID: 1393857863111876952, guid: 05d939c5a7c06ab4883bb441cac37cb1,
        type: 3}
      propertyPath: m_Pivot.y
      value: 0.5
      objectReference: {fileID: 0}
    - target: {fileID: 4682712788885118125, guid: 05d939c5a7c06ab4883bb441cac37cb1,
        type: 3}
      propertyPath: m_Name
      value: WeaponEquipWheelPlayerSpace
      objectReference: {fileID: 0}
    m_RemovedComponents: []
  m_SourcePrefab: {fileID: 100100000, guid: 05d939c5a7c06ab4883bb441cac37cb1, type: 3}
--- !u!224 &6195845408201760440 stripped
RectTransform:
  m_CorrespondingSourceObject: {fileID: 1393857863111876952, guid: 05d939c5a7c06ab4883bb441cac37cb1,
    type: 3}
  m_PrefabInstance: {fileID: 5092421936327360480}
  m_PrefabAsset: {fileID: 0}
