%YAML 1.1
%TAG !u! tag:unity3d.com,2011:
--- !u!1 &2538908325679436020
GameObject:
  m_ObjectHideFlags: 0
  m_CorrespondingSourceObject: {fileID: 0}
  m_PrefabInstance: {fileID: 0}
  m_PrefabAsset: {fileID: 0}
  serializedVersion: 6
  m_Component:
  - component: {fileID: 2538908325679436023}
  - component: {fileID: 2538908325679436022}
  - component: {fileID: 2538908325679436009}
  m_Layer: 10
  m_Name: PlayerCharacterMoveVisuals
  m_TagString: Player
  m_Icon: {fileID: 0}
  m_NavMeshLayer: 0
  m_StaticEditorFlags: 0
  m_IsActive: 1
--- !u!4 &2538908325679436023
Transform:
  m_ObjectHideFlags: 0
  m_CorrespondingSourceObject: {fileID: 0}
  m_PrefabInstance: {fileID: 0}
  m_PrefabAsset: {fileID: 0}
  m_GameObject: {fileID: 2538908325679436020}
  m_LocalRotation: {x: 0, y: 0, z: 0, w: 1}
  m_LocalPosition: {x: 0, y: -1.98, z: 0}
  m_LocalScale: {x: 1, y: 1, z: 1}
  m_Children: []
  m_Father: {fileID: 2538908326608374286}
  m_RootOrder: 0
  m_LocalEulerAnglesHint: {x: 0, y: 0, z: 0}
--- !u!212 &2538908325679436022
SpriteRenderer:
  m_ObjectHideFlags: 0
  m_CorrespondingSourceObject: {fileID: 0}
  m_PrefabInstance: {fileID: 0}
  m_PrefabAsset: {fileID: 0}
  m_GameObject: {fileID: 2538908325679436020}
  m_Enabled: 1
  m_CastShadows: 0
  m_ReceiveShadows: 0
  m_DynamicOccludee: 1
  m_MotionVectors: 1
  m_LightProbeUsage: 1
  m_ReflectionProbeUsage: 1
  m_RayTracingMode: 0
  m_RenderingLayerMask: 1
  m_RendererPriority: 0
  m_Materials:
  - {fileID: 10754, guid: 0000000000000000f000000000000000, type: 0}
  m_StaticBatchInfo:
    firstSubMesh: 0
    subMeshCount: 0
  m_StaticBatchRoot: {fileID: 0}
  m_ProbeAnchor: {fileID: 0}
  m_LightProbeVolumeOverride: {fileID: 0}
  m_ScaleInLightmap: 1
  m_ReceiveGI: 1
  m_PreserveUVs: 0
  m_IgnoreNormalsForChartDetection: 0
  m_ImportantGI: 0
  m_StitchLightmapSeams: 1
  m_SelectedEditorRenderState: 0
  m_MinimumChartSize: 4
  m_AutoUVMaxDistance: 0.5
  m_AutoUVMaxAngle: 89
  m_LightmapParameters: {fileID: 0}
  m_SortingLayerID: 1603220759
  m_SortingLayer: 3
  m_SortingOrder: 0
  m_Sprite: {fileID: 5859103667259987284, guid: bfeb7fc2cf9aba94a83cef129ae7d1c6,
    type: 3}
  m_Color: {r: 1, g: 1, b: 1, a: 1}
  m_FlipX: 0
  m_FlipY: 0
  m_DrawMode: 0
  m_Size: {x: 0.875, y: 2}
  m_AdaptiveModeThreshold: 0.5
  m_SpriteTileMode: 0
  m_WasSpriteAssigned: 1
  m_MaskInteraction: 0
  m_SpriteSortPoint: 1
--- !u!95 &2538908325679436009
Animator:
  serializedVersion: 3
  m_ObjectHideFlags: 0
  m_CorrespondingSourceObject: {fileID: 0}
  m_PrefabInstance: {fileID: 0}
  m_PrefabAsset: {fileID: 0}
  m_GameObject: {fileID: 2538908325679436020}
  m_Enabled: 1
  m_Avatar: {fileID: 0}
  m_Controller: {fileID: 9100000, guid: 3eb945a20d7c6e1438279a57c5d2c7d0, type: 2}
  m_CullingMode: 0
  m_UpdateMode: 0
  m_ApplyRootMotion: 0
  m_LinearVelocityBlending: 0
  m_WarningMessage: 
  m_HasTransformHierarchy: 1
  m_AllowConstantClipSamplingOptimization: 1
  m_KeepAnimatorControllerStateOnDisable: 0
--- !u!1 &2538908326608374287
GameObject:
  m_ObjectHideFlags: 0
  m_CorrespondingSourceObject: {fileID: 0}
  m_PrefabInstance: {fileID: 0}
  m_PrefabAsset: {fileID: 0}
  serializedVersion: 6
  m_Component:
  - component: {fileID: 2538908326608374286}
  - component: {fileID: 2538908326608374523}
  - component: {fileID: 2999556630374957116}
  - component: {fileID: 2538908326608374521}
  - component: {fileID: 2538908326608374520}
  - component: {fileID: 6358386300104812732}
  - component: {fileID: 2538908326608374278}
  - component: {fileID: 7829394802280420602}
  - component: {fileID: 8815582530683639701}
  - component: {fileID: 5821104311429499837}
  - component: {fileID: 579395814762845209}
  - component: {fileID: -1507574225192371083}
  - component: {fileID: 3158367513031587265}
  - component: {fileID: 5507250569429604581}
  - component: {fileID: 5003190009716657342}
  - component: {fileID: 3140597824726427132}
  - component: {fileID: 8192453151396148166}
  - component: {fileID: 8420034556327312610}
  - component: {fileID: 5595959342333676555}
  m_Layer: 10
  m_Name: PlayerCharacter
  m_TagString: Player
  m_Icon: {fileID: 0}
  m_NavMeshLayer: 0
  m_StaticEditorFlags: 0
  m_IsActive: 1
--- !u!4 &2538908326608374286
Transform:
  m_ObjectHideFlags: 0
  m_CorrespondingSourceObject: {fileID: 0}
  m_PrefabInstance: {fileID: 0}
  m_PrefabAsset: {fileID: 0}
  m_GameObject: {fileID: 2538908326608374287}
  m_LocalRotation: {x: 0, y: 0, z: 0, w: 1}
  m_LocalPosition: {x: 0, y: -0.18, z: 0}
  m_LocalScale: {x: 1, y: 1, z: 1}
  m_Children:
  - {fileID: 2538908325679436023}
  - {fileID: 3872621204044854383}
  m_Father: {fileID: 0}
  m_RootOrder: 0
  m_LocalEulerAnglesHint: {x: 0, y: 0, z: 0}
--- !u!50 &2538908326608374523
Rigidbody2D:
  serializedVersion: 4
  m_ObjectHideFlags: 0
  m_CorrespondingSourceObject: {fileID: 0}
  m_PrefabInstance: {fileID: 0}
  m_PrefabAsset: {fileID: 0}
  m_GameObject: {fileID: 2538908326608374287}
  m_BodyType: 0
  m_Simulated: 1
  m_UseFullKinematicContacts: 0
  m_UseAutoMass: 0
  m_Mass: 1
  m_LinearDrag: 1
  m_AngularDrag: 0.05
  m_GravityScale: 0
  m_Material: {fileID: 0}
  m_Interpolate: 1
  m_SleepingMode: 1
  m_CollisionDetection: 1
  m_Constraints: 4
--- !u!61 &2999556630374957116
BoxCollider2D:
  m_ObjectHideFlags: 0
  m_CorrespondingSourceObject: {fileID: 0}
  m_PrefabInstance: {fileID: 0}
  m_PrefabAsset: {fileID: 0}
  m_GameObject: {fileID: 2538908326608374287}
  m_Enabled: 1
  m_Density: 1
  m_Material: {fileID: 0}
  m_IsTrigger: 1
  m_UsedByEffector: 0
  m_UsedByComposite: 0
  m_Offset: {x: -0.0075939894, y: -0.25819397}
  m_SpriteTilingProperty:
    border: {x: 0, y: 0, z: 0, w: 0}
    pivot: {x: 0, y: 0}
    oldSize: {x: 0, y: 0}
    newSize: {x: 0, y: 0}
    adaptiveTilingThreshold: 0
    drawMode: 0
    adaptiveTiling: 0
  m_AutoTiling: 0
  serializedVersion: 2
  m_Size: {x: 1.8049583, y: 1.789772}
  m_EdgeRadius: 0
--- !u!61 &2538908326608374521
BoxCollider2D:
  m_ObjectHideFlags: 0
  m_CorrespondingSourceObject: {fileID: 0}
  m_PrefabInstance: {fileID: 0}
  m_PrefabAsset: {fileID: 0}
  m_GameObject: {fileID: 2538908326608374287}
  m_Enabled: 1
  m_Density: 1
  m_Material: {fileID: 0}
  m_IsTrigger: 0
  m_UsedByEffector: 0
  m_UsedByComposite: 0
  m_Offset: {x: -0.007594049, y: -1.6630726}
  m_SpriteTilingProperty:
    border: {x: 0, y: 0, z: 0, w: 0}
    pivot: {x: 0, y: 0}
    oldSize: {x: 0, y: 0}
    newSize: {x: 0, y: 0}
    adaptiveTilingThreshold: 0
    drawMode: 0
    adaptiveTiling: 0
  m_AutoTiling: 0
  serializedVersion: 2
  m_Size: {x: 1.531576, y: 0.83293533}
  m_EdgeRadius: 0
--- !u!210 &2538908326608374520
SortingGroup:
  m_ObjectHideFlags: 0
  m_CorrespondingSourceObject: {fileID: 0}
  m_PrefabInstance: {fileID: 0}
  m_PrefabAsset: {fileID: 0}
  m_GameObject: {fileID: 2538908326608374287}
  m_Enabled: 1
  m_SortingLayerID: 47421343
  m_SortingLayer: 4
  m_SortingOrder: 0
--- !u!114 &6358386300104812732
MonoBehaviour:
  m_ObjectHideFlags: 0
  m_CorrespondingSourceObject: {fileID: 0}
  m_PrefabInstance: {fileID: 0}
  m_PrefabAsset: {fileID: 0}
  m_GameObject: {fileID: 2538908326608374287}
  m_Enabled: 1
  m_EditorHideFlags: 0
  m_Script: {fileID: 11500000, guid: 89ee7fe4b0037274d8dba40f605ae049, type: 3}
  m_Name: 
  m_EditorClassIdentifier: 
  Gravity: -30
  GravityActive: 1
  CrouchedRaycastLengthMultiplier: 1
  Speed: {x: 0, y: 0, z: 0}
  Velocity: {x: 0, y: 0, z: 0}
  VelocityLastFrame: {x: 0, y: 0, z: 0}
  Acceleration: {x: 0, y: 0, z: 0}
  Grounded: 1
  JustGotGrounded: 0
  CurrentMovement: {x: 0, y: 0, z: 0}
  CurrentDirection: {x: 0, y: 0, z: 0}
  Friction: 0
  AddedForce: {x: 0, y: 0, z: 0}
  FreeMovement: 1
  OverHole: 0
  GroundLayerMask:
    serializedVersion: 2
    m_Bits: 512
  HoleLayerMask:
    serializedVersion: 2
    m_Bits: 65536
  ObstaclesLayerMask:
    serializedVersion: 2
    m_Bits: 10512
--- !u!114 &2538908326608374278
MonoBehaviour:
  m_ObjectHideFlags: 0
  m_CorrespondingSourceObject: {fileID: 0}
  m_PrefabInstance: {fileID: 0}
  m_PrefabAsset: {fileID: 0}
  m_GameObject: {fileID: 2538908326608374287}
  m_Enabled: 1
  m_EditorHideFlags: 0
  m_Script: {fileID: 11500000, guid: 5fe81ad80cb743b408fa90b048ad597f, type: 3}
  m_Name: 
  m_EditorClassIdentifier: 
  CharacterDimension: 0
  CharacterType: 0
  PlayerID: Player1
  DirectionOnSpawn: 4
  CharacterAnimator: {fileID: 2538908325679436009}
  UseDefaultMecanim: 1
  CharacterModel: {fileID: 2538908325679436020}
  SendStateChangeEvents: 1
  SendStateUpdateEvents: 1
  OptimizeForMobile: 1
--- !u!114 &7829394802280420602
MonoBehaviour:
  m_ObjectHideFlags: 0
  m_CorrespondingSourceObject: {fileID: 0}
  m_PrefabInstance: {fileID: 0}
  m_PrefabAsset: {fileID: 0}
  m_GameObject: {fileID: 2538908326608374287}
  m_Enabled: 1
  m_EditorHideFlags: 0
  m_Script: {fileID: 11500000, guid: af3b7ab2b51f5c2419cc72bff008ff0f, type: 3}
  m_Name: 
  m_EditorClassIdentifier: 
  AbilityStartSfx: {fileID: 0}
  AbilityInProgressSfx: {fileID: 0}
  AbilityStopSfx: {fileID: 0}
  AbilityStartFeedbacks: {fileID: 0}
  AbilityStopFeedbacks: {fileID: 0}
  AbilityPermitted: 1
  FacingMode: 3
  ModelShouldFlip: 0
  ModelFlipValueLeft: {x: -1, y: 1, z: 1}
  ModelFlipValueRight: {x: 1, y: 1, z: 1}
  ModelShouldRotate: 0
  ModelRotationValueLeft: {x: 0, y: 180, z: 0}
  ModelRotationValueRight: {x: 0, y: 0, z: 0}
  ModelRotationSpeed: 0
  InitialFacingDirection: 1
  AbsoluteThresholdMovement: 0.5
  AbsoluteThresholdWeapon: 0.5
  CurrentFacingDirection: 1
  IsFacingRight: 1
--- !u!114 &8815582530683639701
MonoBehaviour:
  m_ObjectHideFlags: 0
  m_CorrespondingSourceObject: {fileID: 0}
  m_PrefabInstance: {fileID: 0}
  m_PrefabAsset: {fileID: 0}
  m_GameObject: {fileID: 2538908326608374287}
  m_Enabled: 1
  m_EditorHideFlags: 0
  m_Script: {fileID: 11500000, guid: 69614a4a3cfd06d4e8388acafdb774bd, type: 3}
  m_Name: 
  m_EditorClassIdentifier: 
  AbilityStartSfx: {fileID: 0}
  AbilityInProgressSfx: {fileID: 0}
  AbilityStopSfx: {fileID: 0}
  AbilityStartFeedbacks: {fileID: 0}
  AbilityStopFeedbacks: {fileID: 0}
  AbilityPermitted: 1
  Movement: 0
  InputAuthorized: 1
  AnalogInput: 0
  WalkSpeed: 12
  ShouldSetMovement: 1
  IdleThreshold: 0.05
  Acceleration: 5
  Deceleration: 100000
  InterpolateMovementSpeed: 0
  WalkParticles: []
  TouchTheGroundParticles: []
  TouchTheGroundSfx: []
--- !u!114 &5821104311429499837
MonoBehaviour:
  m_ObjectHideFlags: 0
  m_CorrespondingSourceObject: {fileID: 0}
  m_PrefabInstance: {fileID: 0}
  m_PrefabAsset: {fileID: 0}
  m_GameObject: {fileID: 2538908326608374287}
  m_Enabled: 1
  m_EditorHideFlags: 0
  m_Script: {fileID: 11500000, guid: d103439fc2940e347937487a70ea01e3, type: 3}
  m_Name: 
  m_EditorClassIdentifier: 
  AbilityStartSfx: {fileID: 0}
  AbilityInProgressSfx: {fileID: 0}
  AbilityStopSfx: {fileID: 0}
  AbilityStartFeedbacks: {fileID: 0}
  AbilityStopFeedbacks: {fileID: 0}
  AbilityPermitted: 1
  RunSpeed: 18
  AutoRun: 0
  AutoRunThreshold: 0.6
--- !u!114 &579395814762845209
MonoBehaviour:
  m_ObjectHideFlags: 0
  m_CorrespondingSourceObject: {fileID: 0}
  m_PrefabInstance: {fileID: 0}
  m_PrefabAsset: {fileID: 0}
  m_GameObject: {fileID: 2538908326608374287}
  m_Enabled: 1
  m_EditorHideFlags: 0
  m_Script: {fileID: 11500000, guid: cde870ae7090b974bb115e88bfbf8320, type: 3}
  m_Name: 
  m_EditorClassIdentifier: 
  AbilityStartSfx: {fileID: 0}
  AbilityInProgressSfx: {fileID: 0}
  AbilityStopSfx: {fileID: 0}
  AbilityStartFeedbacks: {fileID: 0}
  AbilityStopFeedbacks: {fileID: 0}
  AbilityPermitted: 1
  DashMode: 1
  DashDirection: {x: 0, y: 0, z: 1}
  DashDistance: 6
  DashDuration: 0.2
  DashCurve:
    serializedVersion: 2
    m_Curve:
    - serializedVersion: 3
      time: 0
      value: 0
      inSlope: 0
      outSlope: 0
      tangentMode: 0
      weightedMode: 0
      inWeight: 0
      outWeight: 0
    - serializedVersion: 3
      time: 1
      value: 1
      inSlope: 0
      outSlope: 0
      tangentMode: 0
      weightedMode: 0
      inWeight: 0
      outWeight: 0
    m_PreInfinity: 2
    m_PostInfinity: 2
    m_RotationOrder: 4
  Cooldown:
    Unlimited: 0
    ConsumptionDuration: 2
    PauseOnEmptyDuration: 1
    RefillDuration: 1
    CanInterruptRefill: 1
    CooldownState: 0
    CurrentDurationLeft: 0
  DashFeedback: {fileID: 0}
--- !u!114 &-1507574225192371083
MonoBehaviour:
  m_ObjectHideFlags: 0
  m_CorrespondingSourceObject: {fileID: 0}
  m_PrefabInstance: {fileID: 0}
  m_PrefabAsset: {fileID: 0}
  m_GameObject: {fileID: 2538908326608374287}
  m_Enabled: 1
  m_EditorHideFlags: 0
  m_Script: {fileID: 11500000, guid: 6a07c6668aa55403790d27b575279549, type: 3}
  m_Name: 
  m_EditorClassIdentifier: 
  AbilityStartSfx: {fileID: 0}
  AbilityInProgressSfx: {fileID: 0}
  AbilityStopSfx: {fileID: 0}
  AbilityStartFeedbacks: {fileID: 0}
  AbilityStopFeedbacks: {fileID: 0}
  AbilityPermitted: 1
  InitialWeapon: {fileID: 1713743911757674365, guid: edb0f6645438025419b05e48e1c008cb,
    type: 3}
  CanPickupWeapons: 1
  WeaponUseFeedback: {fileID: 0}
  WeaponAttachment: {fileID: 3872621204044854383}
  ProjectileSpawn: {fileID: 0}
  AutomaticallyBindAnimator: 1
  AmmoDisplayID: 0
  AutoIK: 1
  ContinuousPress: 0
  GettingHitInterruptsAttack: 0
  BufferInput: 1
  NewInputExtendsBuffer: 0
  MaximumBufferDuration: 0.5
  RequiresPerfectTile: 0
  CurrentWeapon: {fileID: 0}
--- !u!114 &3158367513031587265
MonoBehaviour:
  m_ObjectHideFlags: 0
  m_CorrespondingSourceObject: {fileID: 0}
  m_PrefabInstance: {fileID: 0}
  m_PrefabAsset: {fileID: 0}
  m_GameObject: {fileID: 2538908326608374287}
  m_Enabled: 1
  m_EditorHideFlags: 0
  m_Script: {fileID: 11500000, guid: a87ffdd7d8febb24b817b1d3d350bef7, type: 3}
  m_Name: 
  m_EditorClassIdentifier: 
  AbilityStartSfx: {fileID: 0}
  AbilityInProgressSfx: {fileID: 0}
  AbilityStopSfx: {fileID: 0}
  AbilityStartFeedbacks: {fileID: 0}
  AbilityStopFeedbacks: {fileID: 0}
  AbilityPermitted: 1
  ButtonActivatedZone: {fileID: 0}
--- !u!114 &5507250569429604581
MonoBehaviour:
  m_ObjectHideFlags: 0
  m_CorrespondingSourceObject: {fileID: 0}
  m_PrefabInstance: {fileID: 0}
  m_PrefabAsset: {fileID: 0}
  m_GameObject: {fileID: 2538908326608374287}
  m_Enabled: 1
  m_EditorHideFlags: 0
  m_Script: {fileID: 11500000, guid: d3c5cde4f9ad2514f8f7c0dcdbb02e98, type: 3}
  m_Name: 
  m_EditorClassIdentifier: 
  AbilityStartSfx: {fileID: 0}
  AbilityInProgressSfx: {fileID: 0}
  AbilityStopSfx: {fileID: 0}
  AbilityStartFeedbacks: {fileID: 0}
  AbilityStopFeedbacks: {fileID: 0}
  AbilityPermitted: 1
--- !u!114 &5003190009716657342
MonoBehaviour:
  m_ObjectHideFlags: 0
  m_CorrespondingSourceObject: {fileID: 0}
  m_PrefabInstance: {fileID: 0}
  m_PrefabAsset: {fileID: 0}
  m_GameObject: {fileID: 2538908326608374287}
  m_Enabled: 1
  m_EditorHideFlags: 0
  m_Script: {fileID: 11500000, guid: edb42ff3d7256e04e9f2efa1ba25aff4, type: 3}
  m_Name: 
  m_EditorClassIdentifier: 
  AbilityStartSfx: {fileID: 0}
  AbilityInProgressSfx: {fileID: 0}
  AbilityStopSfx: {fileID: 0}
  AbilityStartFeedbacks: {fileID: 0}
  AbilityStopFeedbacks: {fileID: 0}
  AbilityPermitted: 1
  InitialArmor: {fileID: 0}
  CanPickupArmor: 1
  ArmorAttachment: {fileID: 0}
  AutomaticallyBindAnimator: 1
  CurrentArmor: {fileID: 0}
--- !u!114 &3140597824726427132
MonoBehaviour:
  m_ObjectHideFlags: 0
  m_CorrespondingSourceObject: {fileID: 0}
  m_PrefabInstance: {fileID: 0}
  m_PrefabAsset: {fileID: 0}
  m_GameObject: {fileID: 2538908326608374287}
  m_Enabled: 1
  m_EditorHideFlags: 0
  m_Script: {fileID: 11500000, guid: 5122f5e8122e3394fa5dd01eb9f5e48f, type: 3}
  m_Name: 
  m_EditorClassIdentifier: 
  AbilityStartSfx: {fileID: 0}
  AbilityInProgressSfx: {fileID: 0}
  AbilityStopSfx: {fileID: 0}
  AbilityStartFeedbacks: {fileID: 0}
  AbilityStopFeedbacks: {fileID: 0}
  AbilityPermitted: 1
  InitialEquippable: {fileID: 0}
  CanPickupEquippable: 1
  CurrentEquippable: {fileID: 0}
  EquippableAttachment: {fileID: 0}
--- !u!114 &8192453151396148166
MonoBehaviour:
  m_ObjectHideFlags: 0
  m_CorrespondingSourceObject: {fileID: 0}
  m_PrefabInstance: {fileID: 0}
  m_PrefabAsset: {fileID: 0}
  m_GameObject: {fileID: 2538908326608374287}
  m_Enabled: 1
  m_EditorHideFlags: 0
  m_Script: {fileID: 11500000, guid: 967ec6cb1a4acd74393b2ea59a8c24f6, type: 3}
  m_Name: 
  m_EditorClassIdentifier: 
  RefillMode: 0
  CooldownAfterHit: 1
  RefillHealth: 0
  HealthPerSecond: 0
  HealthPerBurst: 5
  DurationBetweenBursts: 2
  CooldownAfterDeplete: 2
  RefillMP: 1
  MPPerSecond: 0
--- !u!114 &8420034556327312610
MonoBehaviour:
  m_ObjectHideFlags: 0
  m_CorrespondingSourceObject: {fileID: 0}
  m_PrefabInstance: {fileID: 0}
  m_PrefabAsset: {fileID: 0}
  m_GameObject: {fileID: 2538908326608374287}
  m_Enabled: 1
  m_EditorHideFlags: 0
  m_Script: {fileID: 11500000, guid: 315c9b801e05026449f45252b80fd9b5, type: 3}
  m_Name: 
  m_EditorClassIdentifier: 
  Model: {fileID: 2538908325679436020}
  CurrentHealth: 0
  Invulnerable: 0
  InitialHealth: 10
  MaximumHealth: 10
  ImmuneToKnockback: 0
  DamageMMFeedbacks: {fileID: 0}
  DestroyOnDeath: 1
  DelayBeforeDestruction: 0
  PointsWhenDestroyed: 0
  RespawnAtInitialLocation: 0
  DisableControllerOnDeath: 1
  DisableModelOnDeath: 1
  DisableCollisionsOnDeath: 1
  DisableChildCollisionsOnDeath: 0
  ChangeLayerOnDeath: 0
  ChangeLayersRecursivelyOnDeath: 0
  LayerOnDeath:
    _layerIndex: 15
  DeathMMFeedbacks: {fileID: 0}
  CurrentMP: 0
  InfiniteMP: 0
  InitialMP: 10
  MaximumMP: 10
  mpConsumeMMFeedbacks: {fileID: 0}
  DepleteMMFeedbacks: {fileID: 0}
  CurrentArmor: 0
  InitialArmor: 0
  MaximumArmor: 0
--- !u!114 &5595959342333676555
MonoBehaviour:
  m_ObjectHideFlags: 0
  m_CorrespondingSourceObject: {fileID: 0}
  m_PrefabInstance: {fileID: 0}
  m_PrefabAsset: {fileID: 0}
  m_GameObject: {fileID: 2538908326608374287}
  m_Enabled: 1
  m_EditorHideFlags: 0
  m_Script: {fileID: 11500000, guid: 05b56d00552d6cd44b46000232e9d83a, type: 3}
  m_Name: 
  m_EditorClassIdentifier: 
  AbilityStartSfx: {fileID: 0}
  AbilityInProgressSfx: {fileID: 0}
  AbilityStopSfx: {fileID: 0}
  AbilityStartFeedbacks: {fileID: 0}
  AbilityStopFeedbacks: {fileID: 0}
  AbilityPermitted: 1
  MainInventoryName: MainInventory
  WeaponInventoryName: WeaponInventory
  HotbarInventoryName: MeleeWeaponInventory
  WeaponRotationMode: 0
--- !u!1 &4747425693417014377
GameObject:
  m_ObjectHideFlags: 0
  m_CorrespondingSourceObject: {fileID: 0}
  m_PrefabInstance: {fileID: 0}
  m_PrefabAsset: {fileID: 0}
  serializedVersion: 6
  m_Component:
  - component: {fileID: 3872621204044854383}
  m_Layer: 10
  m_Name: WeaponAttachment
  m_TagString: Untagged
  m_Icon: {fileID: 0}
  m_NavMeshLayer: 0
  m_StaticEditorFlags: 0
  m_IsActive: 1
--- !u!4 &3872621204044854383
Transform:
  m_ObjectHideFlags: 0
  m_CorrespondingSourceObject: {fileID: 0}
  m_PrefabInstance: {fileID: 0}
  m_PrefabAsset: {fileID: 0}
  m_GameObject: {fileID: 4747425693417014377}
  m_LocalRotation: {x: 0, y: 0, z: 0, w: 1}
  m_LocalPosition: {x: 0, y: 0, z: 0}
  m_LocalScale: {x: 1, y: 1, z: 1}
  m_Children: []
  m_Father: {fileID: 2538908326608374286}
  m_RootOrder: 1
  m_LocalEulerAnglesHint: {x: 0, y: 0, z: 0}
