%YAML 1.1
%TAG !u! tag:unity3d.com,2011:
--- !u!221 &22100000
AnimatorOverrideController:
  m_ObjectHideFlags: 0
  m_CorrespondingSourceObject: {fileID: 0}
  m_PrefabInstance: {fileID: 0}
  m_PrefabAsset: {fileID: 0}
  m_Name: MaleChild1
  m_Controller: {fileID: 9100000, guid: 6f4db32d4aeba634181a3f50c4b634f5, type: 2}
  m_Clips:
  - m_OriginalClip: {fileID: 7400000, guid: d08eb2fd30491c341a2561d17a4558d6, type: 2}
    m_OverrideClip: {fileID: 7400000, guid: cda9afe5d336cec4b8334ae58efcd3e6, type: 2}
  - m_OriginalClip: {fileID: 7400000, guid: 6b837b921239c3544979fa81718a9696, type: 2}
    m_OverrideClip: {fileID: 7400000, guid: 3dea0fb851d927f44b7ed42341cc21df, type: 2}
  - m_OriginalClip: {fileID: 7400000, guid: bfe1ac44e3b1cb841985d16f2797d891, type: 2}
    m_OverrideClip: {fileID: 7400000, guid: 415d66de5b3576342a28c4e4eebd4742, type: 2}
  - m_OriginalClip: {fileID: 7400000, guid: bc3248547a110604d97cdb545ff07581, type: 2}
    m_OverrideClip: {fileID: 7400000, guid: 3a90de90800293446943a04242805537, type: 2}
  - m_OriginalClip: {fileID: 7400000, guid: 121b99c57f9048c4ba4ec747b2b210a7, type: 2}
    m_OverrideClip: {fileID: 7400000, guid: 2bff2d9c72d91a74e8445980f871702d, type: 2}
  - m_OriginalClip: {fileID: 7400000, guid: ec7cd8e4c63b8564c8a4263682ed8df5, type: 2}
    m_OverrideClip: {fileID: 7400000, guid: e3792c9dbe52cc547a483ad001dd27b5, type: 2}
  - m_OriginalClip: {fileID: 7400000, guid: 89ec848ed200436479c30e9bb7920b78, type: 2}
    m_OverrideClip: {fileID: 7400000, guid: c5a05bb08b47d684dbb572442139e800, type: 2}
  - m_OriginalClip: {fileID: 7400000, guid: 2b7156179ccddfa4691b24512fa19fcb, type: 2}
    m_OverrideClip: {fileID: 7400000, guid: 8aacfa482eb65a54eac67831d5ce9880, type: 2}
