%YAML 1.1
%TAG !u! tag:unity3d.com,2011:
--- !u!114 &11400000
MonoBehaviour:
  m_ObjectHideFlags: 0
  m_CorrespondingSourceObject: {fileID: 0}
  m_PrefabInstance: {fileID: 0}
  m_PrefabAsset: {fileID: 0}
  m_GameObject: {fileID: 0}
  m_Enabled: 1
  m_EditorHideFlags: 0
  m_Script: {fileID: 11500000, guid: ec6dd304e19b42a458401d15b1ff0868, type: 3}
  m_Name: MagicPowerPotion
  m_EditorClassIdentifier: 
  ItemID: MPPotion
  TargetInventoryName: MainInventory
  Usable: 1
  Equippable: 1
  Quantity: 1
  ItemName: Minor MP Potion
  ShortDescription: recovers 5 MP
  Description: Recovers 5 MP
  CanMoveObject: 1
  CanSwapObject: 1
  Icon: {fileID: 21300000, guid: a2e8111201769f041a110310cb0d7911, type: 3}
  Prefab: {fileID: 0}
  SpawnShape: 1
  PrefabDropMinDistance: {x: 2, y: 2, z: 0}
  PrefabDropMaxDistance: {x: 3, y: 3, z: 0}
  MaximumStack: 99
  ItemClass: 3
  TargetEquipmentInventoryName: ConsumableInventory
  EquippedSound: {fileID: 0}
  UsedSound: {fileID: 0}
  MovedSound: {fileID: 0}
  DroppedSound: {fileID: 0}
  UseDefaultSoundsIfNull: 1
  MPBonus: 0
