%YAML 1.1
%TAG !u! tag:unity3d.com,2011:
--- !u!114 &11400000
MonoBehaviour:
  m_ObjectHideFlags: 0
  m_CorrespondingSourceObject: {fileID: 0}
  m_PrefabInstance: {fileID: 0}
  m_PrefabAsset: {fileID: 0}
  m_GameObject: {fileID: 0}
  m_Enabled: 1
  m_EditorHideFlags: 0
  m_Script: {fileID: 11500000, guid: 6eceeb59a892d074db28203df8e4cd3a, type: 3}
  m_Name: DarkWolfRuns
  m_EditorClassIdentifier: 
  _Up: {fileID: 7400000, guid: 1d232abf47d0922439b1a40301572ca1, type: 2}
  _Right: {fileID: 7400000, guid: 10d16c690678f0944b26507ee744ebee, type: 2}
  _Down: {fileID: 7400000, guid: 4f52574fdb03a754cbf3f360cc02fef4, type: 2}
  _Left: {fileID: 7400000, guid: e0974e430122359419ad4b52961dcc07, type: 2}
