%YAML 1.1
%TAG !u! tag:unity3d.com,2011:
--- !u!114 &11400000
MonoBehaviour:
  m_ObjectHideFlags: 0
  m_CorrespondingSourceObject: {fileID: 0}
  m_PrefabInstance: {fileID: 0}
  m_PrefabAsset: {fileID: 0}
  m_GameObject: {fileID: 0}
  m_Enabled: 1
  m_EditorHideFlags: 0
  m_Script: {fileID: 11500000, guid: 6eceeb59a892d074db28203df8e4cd3a, type: 3}
  m_Name: MainCharacterCombo3s
  m_EditorClassIdentifier: 
  _Up: {fileID: 7400000, guid: b22ff2bd83478db468238152de2cb0c7, type: 2}
  _Right: {fileID: 7400000, guid: a077ccdbf99ec1e499e24edd7e0cf3bd, type: 2}
  _Down: {fileID: 7400000, guid: ad41c495f7e4f9941a99d60a78d07589, type: 2}
  _Left: {fileID: 7400000, guid: 85f48773154bb924ba7faa94c90e1d58, type: 2}
