%YAML 1.1
%TAG !u! tag:unity3d.com,2011:
--- !u!114 &11400000
MonoBehaviour:
  m_ObjectHideFlags: 0
  m_CorrespondingSourceObject: {fileID: 0}
  m_PrefabInstance: {fileID: 0}
  m_PrefabAsset: {fileID: 0}
  m_GameObject: {fileID: 0}
  m_Enabled: 1
  m_EditorHideFlags: 0
  m_Script: {fileID: 11500000, guid: 6eceeb59a892d074db28203df8e4cd3a, type: 3}
  m_Name: MainCharacterCombo1s
  m_EditorClassIdentifier: 
  _Up: {fileID: 7400000, guid: 1b7cf20a0dab8804d84292717e81c60d, type: 2}
  _Right: {fileID: 7400000, guid: 91e09b5f255848c4298f8e7534026a13, type: 2}
  _Down: {fileID: 7400000, guid: 4b2926f30c7620b4a8cd79d7001d37dc, type: 2}
  _Left: {fileID: 7400000, guid: 9c8820d2edce7f84cbff249fef8714d6, type: 2}
