%YAML 1.1
%TAG !u! tag:unity3d.com,2011:
--- !u!221 &22100000
AnimatorOverrideController:
  m_ObjectHideFlags: 0
  m_CorrespondingSourceObject: {fileID: 0}
  m_PrefabInstance: {fileID: 0}
  m_PrefabAsset: {fileID: 0}
  m_Name: ElderWoman1
  m_Controller: {fileID: 9100000, guid: 6f4db32d4aeba634181a3f50c4b634f5, type: 2}
  m_Clips:
  - m_OriginalClip: {fileID: 7400000, guid: d08eb2fd30491c341a2561d17a4558d6, type: 2}
    m_OverrideClip: {fileID: 7400000, guid: 267387fa67c147b48b1ab3668ef7ac7a, type: 2}
  - m_OriginalClip: {fileID: 7400000, guid: 6b837b921239c3544979fa81718a9696, type: 2}
    m_OverrideClip: {fileID: 7400000, guid: 2578b6100ba0ed841aca4416b3005341, type: 2}
  - m_OriginalClip: {fileID: 7400000, guid: bfe1ac44e3b1cb841985d16f2797d891, type: 2}
    m_OverrideClip: {fileID: 7400000, guid: fe755800e11ef464ebb77c42d20ee56c, type: 2}
  - m_OriginalClip: {fileID: 7400000, guid: bc3248547a110604d97cdb545ff07581, type: 2}
    m_OverrideClip: {fileID: 7400000, guid: 0f0aa0f9f8df6854f8c734fe8d7b31c6, type: 2}
  - m_OriginalClip: {fileID: 7400000, guid: 121b99c57f9048c4ba4ec747b2b210a7, type: 2}
    m_OverrideClip: {fileID: 7400000, guid: c7cde1504e9d5ff4e9decf6168183cbc, type: 2}
  - m_OriginalClip: {fileID: 7400000, guid: ec7cd8e4c63b8564c8a4263682ed8df5, type: 2}
    m_OverrideClip: {fileID: 7400000, guid: f80c8f957b464af4a99b8e066b5544a0, type: 2}
  - m_OriginalClip: {fileID: 7400000, guid: 89ec848ed200436479c30e9bb7920b78, type: 2}
    m_OverrideClip: {fileID: 7400000, guid: b702c5ea9e0e640489afa2ad0c774f90, type: 2}
  - m_OriginalClip: {fileID: 7400000, guid: 2b7156179ccddfa4691b24512fa19fcb, type: 2}
    m_OverrideClip: {fileID: 7400000, guid: bcd8d1191b9a80d479331ecca196441e, type: 2}
