%YAML 1.1
%TAG !u! tag:unity3d.com,2011:
--- !u!74 &7400000
AnimationClip:
  m_ObjectHideFlags: 0
  m_CorrespondingSourceObject: {fileID: 0}
  m_PrefabInstance: {fileID: 0}
  m_PrefabAsset: {fileID: 0}
  m_Name: MainCharacterAnimRightRun
  serializedVersion: 6
  m_Legacy: 0
  m_Compressed: 0
  m_UseHighQualityCurve: 1
  m_RotationCurves: []
  m_CompressedRotationCurves: []
  m_EulerCurves: []
  m_PositionCurves: []
  m_ScaleCurves: []
  m_FloatCurves: []
  m_PPtrCurves:
  - curve:
    - time: 0
      value: {fileID: 21300000, guid: 6dc7796d44b29bf428c37590746f0943, type: 3}
    - time: 0.125
      value: {fileID: 21300000, guid: c6bf39f4249ef094181be76c4083221e, type: 3}
    - time: 0.25
      value: {fileID: 21300000, guid: 11f42f544656a5b498b36f7f459116d4, type: 3}
    - time: 0.375
      value: {fileID: 21300000, guid: 87377a091b67313409223d5ec9fd4311, type: 3}
    - time: 0.5
      value: {fileID: 21300000, guid: cda303028e10c254f907fb814afa9f94, type: 3}
    - time: 0.625
      value: {fileID: 21300000, guid: 68c46850a8e7381469144d342e5153b2, type: 3}
    attribute: m_Sprite
    path: 
    classID: 212
    script: {fileID: 0}
  m_SampleRate: 8
  m_WrapMode: 0
  m_Bounds:
    m_Center: {x: 0, y: 0, z: 0}
    m_Extent: {x: 0, y: 0, z: 0}
  m_ClipBindingConstant:
    genericBindings:
    - serializedVersion: 2
      path: 0
      attribute: 0
      script: {fileID: 0}
      typeID: 212
      customType: 23
      isPPtrCurve: 1
    pptrCurveMapping:
    - {fileID: 21300000, guid: 6dc7796d44b29bf428c37590746f0943, type: 3}
    - {fileID: 21300000, guid: c6bf39f4249ef094181be76c4083221e, type: 3}
    - {fileID: 21300000, guid: 11f42f544656a5b498b36f7f459116d4, type: 3}
    - {fileID: 21300000, guid: 87377a091b67313409223d5ec9fd4311, type: 3}
    - {fileID: 21300000, guid: cda303028e10c254f907fb814afa9f94, type: 3}
    - {fileID: 21300000, guid: 68c46850a8e7381469144d342e5153b2, type: 3}
  m_AnimationClipSettings:
    serializedVersion: 2
    m_AdditiveReferencePoseClip: {fileID: 0}
    m_AdditiveReferencePoseTime: 0
    m_StartTime: 0
    m_StopTime: 0.75
    m_OrientationOffsetY: 0
    m_Level: 0
    m_CycleOffset: 0
    m_HasAdditiveReferencePose: 0
    m_LoopTime: 1
    m_LoopBlend: 0
    m_LoopBlendOrientation: 0
    m_LoopBlendPositionY: 0
    m_LoopBlendPositionXZ: 0
    m_KeepOriginalOrientation: 0
    m_KeepOriginalPositionY: 1
    m_KeepOriginalPositionXZ: 0
    m_HeightFromFeet: 0
    m_Mirror: 0
  m_EditorCurves: []
  m_EulerEditorCurves: []
  m_HasGenericRootTransform: 0
  m_HasMotionFloatCurves: 0
  m_Events: []
