%YAML 1.1
%TAG !u! tag:unity3d.com,2011:
--- !u!1001 &4320130378670152587
PrefabInstance:
  m_ObjectHideFlags: 0
  serializedVersion: 2
  m_Modification:
    m_TransformParent: {fileID: 0}
    m_Modifications:
    - target: {fileID: -9161674736280137619, guid: 43d874e02eeaf2b498c5b2361a83920a,
        type: 3}
      propertyPath: maxSpawnedEnemies
      value: 1
      objectReference: {fileID: 0}
    - target: {fileID: 679625649503223910, guid: 43d874e02eeaf2b498c5b2361a83920a,
        type: 3}
      propertyPath: GameObjectToPool
      value: 
      objectReference: {fileID: 8789975875994130531, guid: 2d023f9e82c07f34d84f54c3664900ab,
        type: 3}
    - target: {fileID: 679625649503223910, guid: 43d874e02eeaf2b498c5b2361a83920a,
        type: 3}
      propertyPath: PoolSize
      value: 2
      objectReference: {fileID: 0}
    - target: {fileID: 8370275229222404074, guid: 43d874e02eeaf2b498c5b2361a83920a,
        type: 3}
      propertyPath: m_LocalPosition.x
      value: 0
      objectReference: {fileID: 0}
    - target: {fileID: 8370275229222404074, guid: 43d874e02eeaf2b498c5b2361a83920a,
        type: 3}
      propertyPath: m_LocalPosition.y
      value: 0
      objectReference: {fileID: 0}
    - target: {fileID: 8370275229222404074, guid: 43d874e02eeaf2b498c5b2361a83920a,
        type: 3}
      propertyPath: m_LocalPosition.z
      value: 0
      objectReference: {fileID: 0}
    - target: {fileID: 8370275229222404074, guid: 43d874e02eeaf2b498c5b2361a83920a,
        type: 3}
      propertyPath: m_LocalRotation.x
      value: 0
      objectReference: {fileID: 0}
    - target: {fileID: 8370275229222404074, guid: 43d874e02eeaf2b498c5b2361a83920a,
        type: 3}
      propertyPath: m_LocalRotation.y
      value: 0
      objectReference: {fileID: 0}
    - target: {fileID: 8370275229222404074, guid: 43d874e02eeaf2b498c5b2361a83920a,
        type: 3}
      propertyPath: m_LocalRotation.z
      value: 0
      objectReference: {fileID: 0}
    - target: {fileID: 8370275229222404074, guid: 43d874e02eeaf2b498c5b2361a83920a,
        type: 3}
      propertyPath: m_LocalRotation.w
      value: 1
      objectReference: {fileID: 0}
    - target: {fileID: 8370275229222404074, guid: 43d874e02eeaf2b498c5b2361a83920a,
        type: 3}
      propertyPath: m_RootOrder
      value: 0
      objectReference: {fileID: 0}
    - target: {fileID: 8370275229222404074, guid: 43d874e02eeaf2b498c5b2361a83920a,
        type: 3}
      propertyPath: m_LocalEulerAnglesHint.x
      value: 0
      objectReference: {fileID: 0}
    - target: {fileID: 8370275229222404074, guid: 43d874e02eeaf2b498c5b2361a83920a,
        type: 3}
      propertyPath: m_LocalEulerAnglesHint.y
      value: 0
      objectReference: {fileID: 0}
    - target: {fileID: 8370275229222404074, guid: 43d874e02eeaf2b498c5b2361a83920a,
        type: 3}
      propertyPath: m_LocalEulerAnglesHint.z
      value: 0
      objectReference: {fileID: 0}
    - target: {fileID: 8370275229222404079, guid: 43d874e02eeaf2b498c5b2361a83920a,
        type: 3}
      propertyPath: m_Name
      value: MountainWolfSpawner
      objectReference: {fileID: 0}
    m_RemovedComponents: []
  m_SourcePrefab: {fileID: 100100000, guid: 43d874e02eeaf2b498c5b2361a83920a, type: 3}
