%YAML 1.1
%TAG !u! tag:unity3d.com,2011:
--- !u!114 &11400000
MonoBehaviour:
  m_ObjectHideFlags: 0
  m_CorrespondingSourceObject: {fileID: 0}
  m_PrefabInstance: {fileID: 0}
  m_PrefabAsset: {fileID: 0}
  m_GameObject: {fileID: 0}
  m_Enabled: 1
  m_EditorHideFlags: 0
  m_Script: {fileID: 11500000, guid: d95472bda87ae7e459460dd192d349f0, type: 3}
  m_Name: BaseArmor
  m_EditorClassIdentifier: 
  ItemID: PlayerArmor
  TargetInventoryName: ArmorInventory
  Usable: 0
  Equippable: 1
  Quantity: 1
  ItemName: Ye Olde Armor
  ShortDescription: Typical Leather Armor
  Description: The armor of your ancestors but as of now it doesn't seem all that
    special
  CanMoveObject: 1
  CanSwapObject: 1
  Icon: {fileID: 0}
  Prefab: {fileID: 0}
  SpawnShape: 1
  PrefabDropMinDistance: {x: 2, y: 2, z: 0}
  PrefabDropMaxDistance: {x: 3, y: 3, z: 0}
  MaximumStack: 1
  ItemClass: 1
  TargetEquipmentInventoryName: 
  EquippedSound: {fileID: 0}
  UsedSound: {fileID: 0}
  MovedSound: {fileID: 0}
  DroppedSound: {fileID: 0}
  UseDefaultSoundsIfNull: 1
  EquippableArmor: {fileID: 0}
  AutoEquipMode: 2
