%YAML 1.1
%TAG !u! tag:unity3d.com,2011:
--- !u!114 &11400000
MonoBehaviour:
  m_ObjectHideFlags: 0
  m_CorrespondingSourceObject: {fileID: 0}
  m_PrefabInstance: {fileID: 0}
  m_PrefabAsset: {fileID: 0}
  m_GameObject: {fileID: 0}
  m_Enabled: 1
  m_EditorHideFlags: 0
  m_Script: {fileID: 11500000, guid: 6eceeb59a892d074db28203df8e4cd3a, type: 3}
  m_Name: VillagerElderMan1Walks
  m_EditorClassIdentifier: 
  _Up: {fileID: 7400000, guid: 6b837b921239c3544979fa81718a9696, type: 2}
  _Right: {fileID: 7400000, guid: 2b7156179ccddfa4691b24512fa19fcb, type: 2}
  _Down: {fileID: 7400000, guid: bc3248547a110604d97cdb545ff07581, type: 2}
  _Left: {fileID: 7400000, guid: ec7cd8e4c63b8564c8a4263682ed8df5, type: 2}
