%YAML 1.1
%TAG !u! tag:unity3d.com,2011:
--- !u!221 &22100000
AnimatorOverrideController:
  m_ObjectHideFlags: 0
  m_CorrespondingSourceObject: {fileID: 0}
  m_PrefabInstance: {fileID: 0}
  m_PrefabAsset: {fileID: 0}
  m_Name: Spell1Controller
  m_Controller: {fileID: 9100000, guid: 25341ec8996c15a479a7e8495fa345fd, type: 2}
  m_Clips:
  - m_OriginalClip: {fileID: 7400000, guid: 0015dbfe2ea5dcf44b4783919c0df8a9, type: 2}
    m_OverrideClip: {fileID: 7400000, guid: 0015dbfe2ea5dcf44b4783919c0df8a9, type: 2}
  - m_OriginalClip: {fileID: 7400000, guid: 1b7e35bf4b802e34493a31d276e96899, type: 2}
    m_OverrideClip: {fileID: 7400000, guid: 1b7e35bf4b802e34493a31d276e96899, type: 2}
